module service

go 1.15

require (
	github.com/golang/protobuf v1.4.3 // indirect
	github.com/nats-io/nats-server/v2 v2.1.9 // indirect
	github.com/nats-io/nats.go v1.10.0
	google.golang.org/protobuf v1.25.0 // indirect
)
